Chapter 4 scRNA-seq data | Bioinformatics figures for publication
…
4.4 Heatmaps

Marker genes which can be used to uniquely identify each of the clusters are identified using the FindAllMarkers function.

library(dplyr)
all.markers %>%
  group_by(cluster) %>%
  slice_max(n = 5, order_by = avg_log2FC)

## # A tibble: 35 × 7
## # Groups:   cluster [7]
##        p_val avg_log2FC pct.1 pct.2 p_val_adj cluster gene   
##        <dbl>      <dbl> <dbl> <dbl>     <dbl> <fct>   <chr>  
##  1 1.61e-155      1.23  0.94  0.525 2.86e-151 0       IGFBP3 
##  2 4.07e- 65      1.17  0.417 0.149 7.21e- 61 0       IGFBP5 
##  3 2.12e-147      1.06  0.998 0.714 3.75e-143 0       TPM1   
##  4 2.31e-202      0.938 0.994 0.869 4.09e-198 0       CSNK2B 
##  5 1.78e-131      0.901 0.998 0.665 3.15e-127 0       TPM2   
##  6 0              4.79  0.998 0.021 0         1       IGHM   
##  7 0              4.63  1     0.037 0         1       CD74   
##  8 0              4.22  0.945 0.015 0         1       CCL3   
##  9 0              4.08  1     0.959 0         1       TMSB4X 
## 10 0              3.48  0.999 0.033 0         1       HLA-DRA
## # … with 25 more rows
## # ℹ Use `print(n = ...)` to see more rows
…
